rtl/top.vcd
$version Generated by VerilatedVcd $end
$timescale 1ps $end

 $scope module TOP $end
  $var wire 32 9! a0 [31:0] $end
  $var wire  1 6! clk $end
  $var wire  1 7! rst $end
  $var wire 32 8! trigger [31:0] $end
  $scope module top $end
   $var wire 12 4! A [11:0] $end
   $var wire  5 l A1 [4:0] $end
   $var wire  5 m A2 [4:0] $end
   $var wire  3 b ALUControlD [2:0] $end
   $var wire  3 c ALUControlE [2:0] $end
   $var wire 32 u ALUResult [31:0] $end
   $var wire 32 v ALUResultM [31:0] $end
   $var wire 32 w ALUResultW [31:0] $end
   $var wire  1 Y ALUSrcAD $end
   $var wire  1 [ ALUSrcAE $end
   $var wire  1 Z ALUSrcBD $end
   $var wire  1 \ ALUSrcBE $end
   $var wire  1 z BranchD $end
   $var wire  1 { BranchE $end
   $var wire  1 C FlushD $end
   $var wire  1 %! FlushE $end
   $var wire 25 t Imm [24:0] $end
   $var wire 32 H ImmExtD [31:0] $end
   $var wire 32 I ImmExtE [31:0] $end
   $var wire  3 ] ImmSrcD [2:0] $end
   $var wire 32 L InstrD [31:0] $end
   $var wire  1 f JalSrcD $end
   $var wire  1 i JalSrcE $end
   $var wire  1 x JumpD $end
   $var wire  1 y JumpE $end
   $var wire  1 d LdSrcD $end
   $var wire  1 g LdSrcE $end
   $var wire  1 j LdSrcM $end
   $var wire  1 V MemWriteD $end
   $var wire  1 W MemWriteE $end
   $var wire  1 X MemWriteM $end
   $var wire 32 J PCD [31:0] $end
   $var wire 32 K PCE [31:0] $end
   $var wire 32 3! PCF [31:0] $end
   $var wire  1 C PCSrcE $end
   $var wire 32 D PC_PlusD [31:0] $end
   $var wire 32 E PC_PlusE [31:0] $end
   $var wire 32 2! PC_PlusF [31:0] $end
   $var wire 32 F PC_PlusM [31:0] $end
   $var wire 32 G PC_PlusW [31:0] $end
   $var wire 32 n RD [31:0] $end
   $var wire 32 :! RD1 [31:0] $end
   $var wire 32 o RD1E [31:0] $end
   $var wire 32 ;! RD2 [31:0] $end
   $var wire 32 p RD2E [31:0] $end
   $var wire 32 5! RDi [31:0] $end
   $var wire  5 | RdD [4:0] $end
   $var wire  5 } RdE [4:0] $end
   $var wire  5 ~ RdM [4:0] $end
   $var wire  5 !! RdW [4:0] $end
   $var wire 32 s ReadDataW [31:0] $end
   $var wire  1 ^ RegWriteD $end
   $var wire  1 _ RegWriteE $end
   $var wire  1 ` RegWriteM $end
   $var wire  1 a RegWriteW $end
   $var wire  2 R ResultSrcD [1:0] $end
   $var wire  2 S ResultSrcE [1:0] $end
   $var wire  2 T ResultSrcM [1:0] $end
   $var wire  2 U ResultSrcW [1:0] $end
   $var wire 32 q ResultW [31:0] $end
   $var wire  5 l Rs1D [4:0] $end
   $var wire  5 "! Rs1E [4:0] $end
   $var wire  5 m Rs2D [4:0] $end
   $var wire  5 #! Rs2E [4:0] $end
   $var wire 32 &! SrcA0E [31:0] $end
   $var wire 32 '! SrcB0E [31:0] $end
   $var wire  1 e StSrcD $end
   $var wire  1 h StSrcE $end
   $var wire  1 k StSrcM $end
   $var wire  1 $! StallD $end
   $var wire  1 $! StallF $end
   $var wire 32 r WriteDataM [31:0] $end
   $var wire  1 Q ZeroE $end
   $var wire 32 9! a0 [31:0] $end
   $var wire  1 6! clk $end
   $var wire  1 P func75 $end
   $var wire  3 N funct3 [2:0] $end
   $var wire  3 O funct3E [2:0] $end
   $var wire  7 M opcode [6:0] $end
   $var wire  1 7! rst $end
   $var wire 32 8! trigger [31:0] $end
   $scope module PCSrcE_decode $end
    $var wire  1 { BranchE $end
    $var wire  1 y JumpE $end
    $var wire  1 C PCSrcE $end
    $var wire  1 Q ZeroE $end
    $var wire  3 O funct3E [2:0] $end
   $upscope $end
   $scope module Stage1 $end
    $var wire 32 =! DATA_WIDTH [31:0] $end
    $var wire 32 L InstrD [31:0] $end
    $var wire 32 J PCD [31:0] $end
    $var wire 32 3! PCF [31:0] $end
    $var wire 32 D PC_PlusD [31:0] $end
    $var wire 32 2! PC_PlusF [31:0] $end
    $var wire 32 5! RDi [31:0] $end
    $var wire  1 6! clk $end
    $var wire  1 C clr $end
    $var wire  1 $! en $end
   $upscope $end
   $scope module Stage2 $end
    $var wire  3 b ALUControlD [2:0] $end
    $var wire  3 c ALUControlE [2:0] $end
    $var wire  1 Y ALUSrcAD $end
    $var wire  1 [ ALUSrcAE $end
    $var wire  1 Z ALUSrcBD $end
    $var wire  1 \ ALUSrcBE $end
    $var wire  1 z BranchD $end
    $var wire  1 { BranchE $end
    $var wire 32 =! DATA_WIDTH [31:0] $end
    $var wire 32 H ImmExtD [31:0] $end
    $var wire 32 I ImmExtE [31:0] $end
    $var wire  1 f JalSrcD $end
    $var wire  1 i JalSrcE $end
    $var wire  1 x JumpD $end
    $var wire  1 y JumpE $end
    $var wire  1 d LdSrcD $end
    $var wire  1 g LdSrcE $end
    $var wire  1 V MemWriteD $end
    $var wire  1 W MemWriteE $end
    $var wire 32 J PCD [31:0] $end
    $var wire 32 K PCE [31:0] $end
    $var wire 32 D PC_PlusD [31:0] $end
    $var wire 32 E PC_PlusE [31:0] $end
    $var wire 32 :! RD1 [31:0] $end
    $var wire 32 o RD1E [31:0] $end
    $var wire 32 ;! RD2 [31:0] $end
    $var wire 32 p RD2E [31:0] $end
    $var wire  5 | RdD [4:0] $end
    $var wire  5 } RdE [4:0] $end
    $var wire  1 ^ RegWriteD $end
    $var wire  1 _ RegWriteE $end
    $var wire  2 R ResultSrcD [1:0] $end
    $var wire  2 S ResultSrcE [1:0] $end
    $var wire  5 l Rs1D [4:0] $end
    $var wire  5 "! Rs1E [4:0] $end
    $var wire  5 m Rs2D [4:0] $end
    $var wire  5 #! Rs2E [4:0] $end
    $var wire  1 e StSrcD $end
    $var wire  1 h StSrcE $end
    $var wire  1 6! clk $end
    $var wire  1 %! clr $end
    $var wire  3 N funct3 [2:0] $end
    $var wire  3 O funct3E [2:0] $end
   $upscope $end
   $scope module Stage3 $end
    $var wire 32 u ALUResult [31:0] $end
    $var wire 32 v ALUResultM [31:0] $end
    $var wire 32 =! DATA_WIDTH [31:0] $end
    $var wire  1 g LdSrcE $end
    $var wire  1 j LdSrcM $end
    $var wire  1 W MemWriteE $end
    $var wire  1 X MemWriteM $end
    $var wire 32 E PC_PlusE [31:0] $end
    $var wire 32 F PC_PlusM [31:0] $end
    $var wire  5 } RdE [4:0] $end
    $var wire  5 ~ RdM [4:0] $end
    $var wire  1 _ RegWriteE $end
    $var wire  1 ` RegWriteM $end
    $var wire  2 S ResultSrcE [1:0] $end
    $var wire  2 T ResultSrcM [1:0] $end
    $var wire  1 h StSrcE $end
    $var wire  1 k StSrcM $end
    $var wire 32 '! WriteDataE [31:0] $end
    $var wire 32 r WriteDataM [31:0] $end
    $var wire  1 6! clk $end
   $upscope $end
   $scope module Stage4 $end
    $var wire 32 v ALUResultM [31:0] $end
    $var wire 32 w ALUResultW [31:0] $end
    $var wire 32 =! DATA_WIDTH [31:0] $end
    $var wire 32 F PC_PlusM [31:0] $end
    $var wire 32 G PC_PlusW [31:0] $end
    $var wire 32 n RD [31:0] $end
    $var wire  5 ~ RdM [4:0] $end
    $var wire  5 !! RdW [4:0] $end
    $var wire 32 s ReadDataW [31:0] $end
    $var wire  1 ` RegWriteM $end
    $var wire  1 a RegWriteW $end
    $var wire  2 T ResultSrcM [1:0] $end
    $var wire  2 U ResultSrcW [1:0] $end
    $var wire  1 6! clk $end
   $upscope $end
   $scope module my_DataMux $end
    $var wire 32 w ALUResultW [31:0] $end
    $var wire 32 G PC_PlusW [31:0] $end
    $var wire 32 s ReadDataW [31:0] $end
    $var wire  2 U ResultSrcW [1:0] $end
    $var wire 32 q ResultW [31:0] $end
   $upscope $end
   $scope module my_InstrD_mem $end
    $var wire 12 4! A [11:0] $end
    $var wire 32 >! A_length [31:0] $end
    $var wire 32 ?! D_length [31:0] $end
    $var wire 32 5! RDi [31:0] $end
   $upscope $end
   $scope module my_alu $end
    $var wire  3 c ALUControlE [2:0] $end
    $var wire 32 u ALUResult [31:0] $end
    $var wire  1 [ ALUSrcAE $end
    $var wire  1 \ ALUSrcBE $end
    $var wire 32 I ImmExtE [31:0] $end
    $var wire 32 K PCE [31:0] $end
    $var wire 32 &! SrcA0E [31:0] $end
    $var wire 32 (! SrcAE [31:0] $end
    $var wire 32 '! SrcB0E [31:0] $end
    $var wire 32 )! SrcBE [31:0] $end
    $var wire  1 Q ZeroE $end
   $upscope $end
   $scope module my_control_unit $end
    $var wire  3 b ALUControlD [2:0] $end
    $var wire  2 +! ALUDecode [1:0] $end
    $var wire  2 *! ALUOpD [1:0] $end
    $var wire  1 Y ALUSrcAD $end
    $var wire  1 Z ALUSrcBD $end
    $var wire  1 z BranchD $end
    $var wire  3 ] ImmSrcD [2:0] $end
    $var wire  1 f JalSrcD $end
    $var wire  1 x JumpD $end
    $var wire  1 d LdSrcD $end
    $var wire  1 V MemWriteD $end
    $var wire  1 ^ RegWriteD $end
    $var wire  2 R ResultSrcD [1:0] $end
    $var wire  1 e StSrcD $end
    $var wire  1 P func75 $end
    $var wire  3 N funct3 [2:0] $end
    $var wire  1 ,! op5 $end
    $var wire  7 M opcode [6:0] $end
   $upscope $end
   $scope module my_data_memory $end
    $var wire 32 v A [31:0] $end
    $var wire 32 =! DATA_WIDTH [31:0] $end
    $var wire  1 j LdSrcM $end
    $var wire 32 n RD [31:0] $end
    $var wire  1 k StSrcM $end
    $var wire 32 r WD [31:0] $end
    $var wire  1 X WE $end
    $var wire  1 6! clk $end
   $upscope $end
   $scope module my_extend $end
    $var wire 25 t Imm [31:7] $end
    $var wire 32 H ImmExtD [31:0] $end
    $var wire  3 ] ImmSrcD [2:0] $end
   $upscope $end
   $scope module my_hazardunit $end
    $var wire 32 v ALUResultM [31:0] $end
    $var wire 32 =! DATA_WIDTH [31:0] $end
    $var wire  1 C FlushD $end
    $var wire  1 %! FlushE $end
    $var wire  2 -! ForwardAE [1:0] $end
    $var wire  2 .! ForwardBE [1:0] $end
    $var wire  1 C PCSrcE $end
    $var wire 32 o RD1E [31:0] $end
    $var wire 32 p RD2E [31:0] $end
    $var wire  5 } RdE [4:0] $end
    $var wire  5 ~ RdM [4:0] $end
    $var wire  5 !! RdW [4:0] $end
    $var wire  1 ` RegWriteM $end
    $var wire  1 a RegWriteW $end
    $var wire  2 S ResultSrcE [1:0] $end
    $var wire  1 /! ResultSrcE0 $end
    $var wire 32 q ResultW [31:0] $end
    $var wire  5 l Rs1D [4:0] $end
    $var wire  5 "! Rs1E [4:0] $end
    $var wire  5 m Rs2D [4:0] $end
    $var wire  5 #! Rs2E [4:0] $end
    $var wire 32 &! SrcA0E [31:0] $end
    $var wire 32 '! SrcB0E [31:0] $end
    $var wire  1 $! StallD $end
    $var wire  1 $! StallF $end
    $var wire  1 $! lwStall $end
   $upscope $end
   $scope module my_pc $end
    $var wire 32 I ImmExtE [31:0] $end
    $var wire  1 i JalSrcE $end
    $var wire 32 K PCE [31:0] $end
    $var wire 32 3! PCF [31:0] $end
    $var wire 32 <! PCF_Next [31:0] $end
    $var wire  1 C PCSrcE $end
    $var wire 32 1! PC_Jump [31:0] $end
    $var wire 32 2! PC_PlusF [31:0] $end
    $var wire 32 0! PC_TargetE [31:0] $end
    $var wire 32 =! PC_WIDTH [31:0] $end
    $var wire 32 o RD1E [31:0] $end
    $var wire  1 6! clk $end
    $var wire  1 $! en $end
    $var wire  1 7! rst $end
   $upscope $end
   $scope module my_reg_file $end
    $var wire  5 l A1 [4:0] $end
    $var wire  5 m A2 [4:0] $end
    $var wire  5 !! A3 [4:0] $end
    $var wire 32 :! RD1 [31:0] $end
    $var wire 32 ;! RD2 [31:0] $end
    $var wire 32 q WD3 [31:0] $end
    $var wire  1 a WE3 $end
    $var wire 32 9! a0 [31:0] $end
    $var wire  1 6! clk $end
    $var wire 32 # register[0] [31:0] $end
    $var wire 32 - register[10] [31:0] $end
    $var wire 32 . register[11] [31:0] $end
    $var wire 32 / register[12] [31:0] $end
    $var wire 32 0 register[13] [31:0] $end
    $var wire 32 1 register[14] [31:0] $end
    $var wire 32 2 register[15] [31:0] $end
    $var wire 32 3 register[16] [31:0] $end
    $var wire 32 4 register[17] [31:0] $end
    $var wire 32 5 register[18] [31:0] $end
    $var wire 32 6 register[19] [31:0] $end
    $var wire 32 $ register[1] [31:0] $end
    $var wire 32 7 register[20] [31:0] $end
    $var wire 32 8 register[21] [31:0] $end
    $var wire 32 9 register[22] [31:0] $end
    $var wire 32 : register[23] [31:0] $end
    $var wire 32 ; register[24] [31:0] $end
    $var wire 32 < register[25] [31:0] $end
    $var wire 32 = register[26] [31:0] $end
    $var wire 32 > register[27] [31:0] $end
    $var wire 32 ? register[28] [31:0] $end
    $var wire 32 @ register[29] [31:0] $end
    $var wire 32 % register[2] [31:0] $end
    $var wire 32 A register[30] [31:0] $end
    $var wire 32 B register[31] [31:0] $end
    $var wire 32 & register[3] [31:0] $end
    $var wire 32 ' register[4] [31:0] $end
    $var wire 32 ( register[5] [31:0] $end
    $var wire 32 ) register[6] [31:0] $end
    $var wire 32 * register[7] [31:0] $end
    $var wire 32 + register[8] [31:0] $end
    $var wire 32 , register[9] [31:0] $end
    $var wire 32 8! trigger [31:0] $end
   $upscope $end
  $upscope $end
 $upscope $end
$enddefinitions $end


#0
b00000000000000000000000000000000 #
b00000000000000000000000000000000 $
b00000000000000000000000000000000 %
b00000000000000000000000000000000 &
b00000000000000000000000000000000 '
b00000000000000000000000000000000 (
b00000000000000000000000000000000 )
b00000000000000000000000000000000 *
b00000000000000000000000000000000 +
b00000000000000000000000000000000 ,
b00000000000000000000000000000000 -
b00000000000000000000000000000000 .
b00000000000000000000000000000000 /
b00000000000000000000000000000000 0
b00000000000000000000000000000000 1
b00000000000000000000000000000000 2
b00000000000000000000000000000000 3
b00000000000000000000000000000000 4
b00000000000000000000000000000000 5
b00000000000000000000000000000000 6
b00000000000000000000000000000000 7
b00000000000000000000000000000000 8
b00000000000000000000000000000000 9
b00000000000000000000000000000000 :
b00000000000000000000000000000000 ;
b00000000000000000000000000000000 <
b00000000000000000000000000000000 =
b00000000000000000000000000000000 >
b00000000000000000000000000000000 ?
b00000000000000000000000000000000 @
b00000000000000000000000000000000 A
b00000000000000000000000000000000 B
0C
b00000000000000000000000000000000 D
b00000000000000000000000000000000 E
b00000000000000000000000000000000 F
b00000000000000000000000000000000 G
b00000000000000000000000000000000 H
b00000000000000000000000000000000 I
b00000000000000000000000000000000 J
b00000000000000000000000000000000 K
b00000000000000000000000000000000 L
b0000000 M
b000 N
b000 O
0P
0Q
b00 R
b00 S
b00 T
b00 U
0V
0W
0X
0Y
0Z
0[
0\
b000 ]
0^
0_
0`
0a
b000 b
b000 c
0d
0e
0f
0g
0h
0i
0j
0k
b00000 l
b00000 m
b00000000000000000000000000000000 n
b00000000000000000000000000000000 o
b00000000000000000000000000000000 p
b00000000000000000000000000000000 q
b00000000000000000000000000000000 r
b00000000000000000000000000000000 s
b0000000000000000000000000 t
b00000000000000000000000000000000 u
b00000000000000000000000000000000 v
b00000000000000000000000000000000 w
0x
0y
0z
0{
b00000 |
b00000 }
b00000 ~
b00000 !!
b00000 "!
b00000 #!
0$!
0%!
b00000000000000000000000000000000 &!
b00000000000000000000000000000000 '!
b00000000000000000000000000000000 (!
b00000000000000000000000000000000 )!
b00 *!
b00 +!
0,!
b00 -!
b00 .!
0/!
b00000000000000000000000000000000 0!
b00000000000000000000000000000000 1!
b00000000000000000000000000000100 2!
b00000000000000000000000000000000 3!
b000000000000 4!
b00000000000000000000000000000000 5!
16!
17!
b00000000000000000000000000000000 8!
b00000000000000000000000000000000 9!
b00000000000000000000000000000000 :!
b00000000000000000000000000000000 ;!
b00000000000000000000000000000100 <!
b00000000000000000000000000100000 =!
b00000000000000000000000000001100 >!
b00000000000000000000000000001000 ?!
#1
1Q
b00000000000100000000010010010011 5!
06!
#2
b00000000000000000000000000000100 D
b00000000000000000000000000000001 H
b00000000000100000000010010010011 L
b0010011 M
1Z
1^
b00001 m
b0000000000010000000001001 t
b01001 |
b10111111110000000000000000000100 2!
b10111111110000000000000000000000 3!
16!
07!
b00000000000000000000000000000001 8!
b10111111110000000000000000000100 <!
#3
b00000000000000000000000000000001 (
06!
#4
b10111111110000000000000000000100 D
b00000000000000000000000000000100 E
b00000000000000000000000000000001 I
b10111111110000000000000000000000 J
0Q
1\
1_
b00000000000000000000000000000001 u
b01001 }
b00001 #!
b00000000000000000000000000000001 )!
b00000000000000000000000000000001 1!
b10111111110000000000000000001000 2!
b10111111110000000000000000000100 3!
b000000000100 4!
b00001111111100000000100100010011 5!
16!
b10111111110000000000000000001000 <!
#5
06!
#6
b10111111110000000000000000001000 D
b10111111110000000000000000000100 E
b00000000000000000000000000000100 F
b00000000000000000000000011111111 H
b10111111110000000000000000000100 J
b10111111110000000000000000000000 K
b00001111111100000000100100010011 L
1`
b11111 m
b0000111111110000000010010 t
b00000000000000000000000000000001 v
b10010 |
b01001 ~
b10111111110000000000000000000001 1!
b10111111110000000000000000001100 2!
b10111111110000000000000000001000 3!
b000000001000 4!
b00000000100000000000100110010011 5!
16!
b10111111110000000000000000001100 <!
#7
06!
#8
b10111111110000000000000000001100 D
b10111111110000000000000000001000 E
b10111111110000000000000000000100 F
b00000000000000000000000000000100 G
b00000000000000000000000000001000 H
b00000000000000000000000011111111 I
b10111111110000000000000000001000 J
b10111111110000000000000000000100 K
b00000000100000000000100110010011 L
1a
b01000 m
b00000000000000000000000000000001 q
b0000000010000000000010011 t
b00000000000000000000000011111111 u
b00000000000000000000000000000001 w
b10011 |
b10010 }
b01001 !!
b11111 #!
b00000000000000000000000011111111 )!
b10111111110000000000000100000011 1!
b10111111110000000000000000010000 2!
b10111111110000000000000000001100 3!
b000000001100 4!
b00000111111100000000011010010011 5!
16!
b10111111110000000000000000010000 <!
#9
b00000000000000000000000000000001 ,
06!
#10
b10111111110000000000000000010000 D
b10111111110000000000000000001100 E
b10111111110000000000000000001000 F
b10111111110000000000000000000100 G
b00000000000000000000000001111111 H
b00000000000000000000000000001000 I
b10111111110000000000000000001100 J
b10111111110000000000000000001000 K
b00000111111100000000011010010011 L
b11111 m
b0000011111110000000001101 t
b00000000000000000000000000001000 u
b00000000000000000000000011111111 v
b01101 |
b10011 }
b10010 ~
b01000 #!
b00000000000000000000000000001000 )!
b10111111110000000000000000010000 1!
b10111111110000000000000000010100 2!
b10111111110000000000000000010000 3!
b000000010000 4!
b00000000000000000000000000010011 5!
16!
b10111111110000000000000000010100 <!
#11
06!
#12
b10111111110000000000000000010100 D
b10111111110000000000000000010000 E
b10111111110000000000000000001100 F
b10111111110000000000000000001000 G
b00000000000000000000000000000000 H
b00000000000000000000000001111111 I
b10111111110000000000000000010000 J
b10111111110000000000000000001100 K
b00000000000000000000000000010011 L
b00000 m
b00000000000000000000000011111111 q
b0000000000000000000000000 t
b00000000000000000000000001111111 u
b00000000000000000000000000001000 v
b00000000000000000000000011111111 w
b00000 |
b01101 }
b10011 ~
b10010 !!
b11111 #!
b00000000000000000000000001111111 )!
b10111111110000000000000010001011 1!
b10111111110000000000000000011000 2!
b10111111110000000000000000010100 3!
b000000010100 4!
16!
b10111111110000000000000000011000 <!
#13
b00000000000000000000000011111111 5
06!
#14
b10111111110000000000000000011000 D
b10111111110000000000000000010100 E
b10111111110000000000000000010000 F
b10111111110000000000000000001100 G
b00000000000000000000000000000000 I
b10111111110000000000000000010100 J
b10111111110000000000000000010000 K
1Q
b00000000000000000000000000001000 q
b00000000000000000000000000000000 u
b00000000000000000000000001111111 v
b00000000000000000000000000001000 w
b00000 }
b01101 ~
b10011 !!
b00000 #!
b00000000000000000000000000000000 )!
b10111111110000000000000000010000 1!
b10111111110000000000000000011100 2!
b10111111110000000000000000011000 3!
b000000011000 4!
b00000000000000000000010100010011 5!
16!
b10111111110000000000000000011100 <!
#15
b00000000000000000000000000001000 6
06!
#16
b10111111110000000000000000011100 D
b10111111110000000000000000011000 E
b10111111110000000000000000010100 F
b10111111110000000000000000010000 G
b10111111110000000000000000011000 J
b10111111110000000000000000010100 K
b00000000000000000000010100010011 L
b00000000000000000000000001111111 q
b0000000000000000000001010 t
b00000000000000000000000000000000 v
b00000000000000000000000001111111 w
b01010 |
b00000 ~
b01101 !!
b10111111110000000000000000010100 1!
b10111111110000000000000000100000 2!
b10111111110000000000000000011100 3!
b000000011100 4!
b00000000000000000000011100010011 5!
16!
b10111111110000000000000000100000 <!
#17
b00000000000000000000000001111111 0
06!
#18
b10111111110000000000000000100000 D
b10111111110000000000000000011100 E
b10111111110000000000000000011000 F
b10111111110000000000000000010100 G
b10111111110000000000000000011100 J
b10111111110000000000000000011000 K
b00000000000000000000011100010011 L
b00000000000000000000000000000000 q
b0000000000000000000001110 t
b00000000000000000000000000000000 w
b01110 |
b01010 }
b00000 !!
b10111111110000000000000000011000 1!
b10111111110000000000000000100100 2!
b10111111110000000000000000100000 3!
b000000100000 4!
b00000000000000000000001010010011 5!
16!
b10111111110000000000000000100100 <!
#19
06!
#20
b10111111110000000000000000100100 D
b10111111110000000000000000100000 E
b10111111110000000000000000011100 F
b10111111110000000000000000011000 G
b10111111110000000000000000100000 J
b10111111110000000000000000011100 K
b00000000000000000000001010010011 L
b0000000000000000000000101 t
b00101 |
b01110 }
b01010 ~
b10111111110000000000000000011100 1!
b10111111110000000000000000101000 2!
b10111111110000000000000000100100 3!
b000000100100 4!
b00000000000000000000000000010011 5!
16!
b10111111110000000000000000101000 <!
#21
06!
#22
b10111111110000000000000000101000 D
b10111111110000000000000000100100 E
b10111111110000000000000000100000 F
b10111111110000000000000000011100 G
b10111111110000000000000000100100 J
b10111111110000000000000000100000 K
b00000000000000000000000000010011 L
b0000000000000000000000000 t
b00000 |
b00101 }
b01110 ~
b01010 !!
b10111111110000000000000000100000 1!
b10111111110000000000000000101100 2!
b10111111110000000000000000101000 3!
b000000101000 4!
16!
b10111111110000000000000000101100 <!
#23
06!
#24
b10111111110000000000000000101100 D
b10111111110000000000000000101000 E
b10111111110000000000000000100100 F
b10111111110000000000000000100000 G
b10111111110000000000000000101000 J
b10111111110000000000000000100100 K
b00000 }
b00101 ~
b01110 !!
b10111111110000000000000000100100 1!
b10111111110000000000000000110000 2!
b10111111110000000000000000101100 3!
b000000101100 4!
b00001000100100101000011001100011 5!
16!
b10111111110000000000000000110000 <!
#25
06!
#26
b10111111110000000000000000110000 D
b10111111110000000000000000101100 E
b10111111110000000000000000101000 F
b10111111110000000000000000100100 G
b00000000000000000000000010001100 H
b10111111110000000000000000101100 J
b10111111110000000000000000101000 K
b00001000100100101000011001100011 L
b1100011 M
0Z
b010 ]
0^
b001 b
1f
b00101 l
b01001 m
b0000100010010010100001100 t
1z
b01100 |
b00000 ~
b00101 !!
b01 *!
b10 +!
1,!
b10111111110000000000000000101000 1!
b10111111110000000000000000110100 2!
b10111111110000000000000000110000 3!
b000000110000 4!
b00000000001001101101001100010011 5!
16!
b00000000000000000000000000000001 :!
b00000000000000000000000000000001 ;!
b10111111110000000000000000110100 <!
#27
b00000000000000000000000000000000 (
06!
b00000000000000000000000000000000 :!
#28
b00000000000000000000000000000001 (
1C
b10111111110000000000000000110100 D
b10111111110000000000000000110000 E
b10111111110000000000000000101100 F
b10111111110000000000000000101000 G
b00000000000000000000000000000010 H
b00000000000000000000000010001100 I
b10111111110000000000000000110000 J
b10111111110000000000000000101100 K
b00000000001001101101001100010011 L
b0010011 M
b101 N
1Z
0\
b000 ]
1^
0_
b100 b
b001 c
0f
1i
b01101 l
b00010 m
b00000000000000000000000000000001 o
b00000000000000000000000000000001 p
b0000000000100110110100110 t
0z
1{
b00110 |
b01100 }
b00000 !!
b00101 "!
b01001 #!
1%!
b00000000000000000000000000000001 &!
b00000000000000000000000000000001 '!
b00000000000000000000000000000001 (!
b00000000000000000000000000000001 )!
b00 *!
b00 +!
0,!
b10111111110000000000000010111000 0!
b10111111110000000000000010111000 1!
b10111111110000000000000000111000 2!
b10111111110000000000000000110100 3!
b000000110100 4!
b00000000000000000000000000010011 5!
16!
b00000000000000000000000001111111 :!
b00000000000000000000000000000000 ;!
b10111111110000000000000010111000 <!
#29
06!
#30
0C
b00000000000000000000000000000000 D
b00000000000000000000000000000000 E
b10111111110000000000000000110000 F
b10111111110000000000000000101100 G
b00000000000000000000000000000000 H
b00000000000000000000000000000000 I
b00000000000000000000000000000000 J
b00000000000000000000000000000000 K
b00000000000000000000000000000000 L
b0000000 M
b000 N
0Z
0^
0`
b000 b
b000 c
0i
b00000 l
b00000 m
b00000000000000000000000000000000 o
b00000000000000000000000000000000 p
b00000000000000000000000000000001 r
b0000000000000000000000000 t
0{
b00000 |
b00000 }
b01100 ~
b00000 "!
b00000 #!
0%!
b00000000000000000000000000000000 &!
b00000000000000000000000000000000 '!
b00000000000000000000000000000000 (!
b00000000000000000000000000000000 )!
b00000000000000000000000000000000 0!
b00000000000000000000000000000000 1!
b10111111110000000000000010111100 2!
b10111111110000000000000010111000 3!
b000010111000 4!
16!
b00000000000000000000000000000000 :!
b10111111110000000000000010111100 <!
#31
06!
#32
b10111111110000000000000010111100 D
b00000000000000000000000000000000 F
b10111111110000000000000000110000 G
b10111111110000000000000010111000 J
b00000000000000000000000000010011 L
b0010011 M
1Z
1^
0a
b00000000000000000000000000000000 r
b00000 ~
b01100 !!
b10111111110000000000000011000000 2!
b10111111110000000000000010111100 3!
b000010111100 4!
16!
b10111111110000000000000011000000 <!
#33
06!
#34
b10111111110000000000000011000000 D
b10111111110000000000000010111100 E
b00000000000000000000000000000000 G
b10111111110000000000000010111100 J
b10111111110000000000000010111000 K
1\
1_
b00000 !!
b10111111110000000000000010111000 1!
b10111111110000000000000011000100 2!
b10111111110000000000000011000000 3!
b000011000000 4!
b00000100100000000000000011101111 5!
16!
b10111111110000000000000011000100 <!
#35
06!
#36
b10111111110000000000000011000100 D
b10111111110000000000000011000000 E
b10111111110000000000000010111100 F
b00000000000000000000000001001000 H
b10111111110000000000000011000000 J
b10111111110000000000000010111100 K
b00000100100000000000000011101111 L
b1101111 M
b10 R
0Z
b011 ]
1`
1f
b01000 m
b0000010010000000000000001 t
1x
b00001 |
b10 +!
1,!
b10111111110000000000000010111100 1!
b10111111110000000000000011001000 2!
b10111111110000000000000011000100 3!
b000011000100 4!
b00000000000000000000000000010011 5!
16!
b10111111110000000000000011001000 <!
#37
06!
#38
1C
b10111111110000000000000011001000 D
b10111111110000000000000011000100 E
b10111111110000000000000011000000 F
b10111111110000000000000010111100 G
b00000000000000000000000000000000 H
b00000000000000000000000001001000 I
b10111111110000000000000011000100 J
b10111111110000000000000011000000 K
b00000000000000000000000000010011 L
b0010011 M
b00 R
b10 S
1Z
0\
b000 ]
1a
0f
1i
b00000 m
b0000000000000000000000000 t
0x
1y
b00000 |
b00001 }
b01000 #!
1%!
b00 +!
0,!
b10111111110000000000000100001000 0!
b10111111110000000000000100001000 1!
b10111111110000000000000011001100 2!
b10111111110000000000000011001000 3!
b000011001000 4!
16!
b10111111110000000000000100001000 <!
#39
06!
#40
0C
b00000000000000000000000000000000 D
b00000000000000000000000000000000 E
b10111111110000000000000011000100 F
b10111111110000000000000011000000 G
b00000000000000000000000000000000 I
b00000000000000000000000000000000 J
b00000000000000000000000000000000 K
b00000000000000000000000000000000 L
b0000000 M
b00 S
b10 T
0Z
0^
0_
0i
0y
b00000 }
b00001 ~
b00000 #!
0%!
b00000000000000000000000000000000 0!
b00000000000000000000000000000000 1!
b10111111110000000000000100001100 2!
b10111111110000000000000100001000 3!
b000100001000 4!
16!
b10111111110000000000000100001100 <!
#41
06!
#42
b10111111110000000000000100001100 D
b00000000000000000000000000000000 F
b10111111110000000000000011000100 G
b10111111110000000000000100001000 J
b00000000000000000000000000010011 L
b0010011 M
b00 T
b10 U
1Z
1^
0`
b10111111110000000000000011000100 q
b00000 ~
b00001 !!
b10111111110000000000000100010000 2!
b10111111110000000000000100001100 3!
b000100001100 4!
16!
b10111111110000000000000100010000 <!
#43
b10111111110000000000000011000100 $
06!
#44
b10111111110000000000000100010000 D
b10111111110000000000000100001100 E
b00000000000000000000000000000000 G
b10111111110000000000000100001100 J
b10111111110000000000000100001000 K
b00 U
1\
1_
0a
b00000000000000000000000000000000 q
b00000 !!
b10111111110000000000000100001000 1!
b10111111110000000000000100010100 2!
b10111111110000000000000100010000 3!
b000100010000 4!
b00000000000101011000010110010011 5!
16!
b10111111110000000000000100010100 <!
#45
06!
#46
b10111111110000000000000100010100 D
b10111111110000000000000100010000 E
b10111111110000000000000100001100 F
b00000000000000000000000000000001 H
b10111111110000000000000100010000 J
b10111111110000000000000100001100 K
b00000000000101011000010110010011 L
1`
b01011 l
b00001 m
b0000000000010101100001011 t
b01011 |
b10111111110000000000000100001100 1!
b10111111110000000000000100011000 2!
b10111111110000000000000100010100 3!
b000100010100 4!
b00000000000000000000000000010011 5!
16!
b10111111110000000000000011000100 ;!
b10111111110000000000000100011000 <!
#47
06!
#48
b10111111110000000000000100011000 D
b10111111110000000000000100010100 E
b10111111110000000000000100010000 F
b10111111110000000000000100001100 G
b00000000000000000000000000000000 H
b00000000000000000000000000000001 I
b10111111110000000000000100010100 J
b10111111110000000000000100010000 K
b00000000000000000000000000010011 L
0Q
1a
b00000 l
b00000 m
b10111111110000000000000011000100 p
b0000000000000000000000000 t
b00000000000000000000000000000001 u
b00000 |
b01011 }
b01011 "!
b00001 #!
b10111111110000000000000011000100 '!
b00000000000000000000000000000001 )!
b10111111110000000000000100010001 1!
b10111111110000000000000100011100 2!
b10111111110000000000000100011000 3!
b000100011000 4!
16!
b00000000000000000000000000000000 ;!
b10111111110000000000000100011100 <!
#49
06!
